              ____
             /_  _\
            |  ||  |
            |______|
       ____ ___|_|___ ____
      ()___)         ()___)
      // /| [1][2][3] |\ \\
     // / |   [4][5]  | \ \\
    (___) |___________| (___)
    (___)   (_______)   (___)
    (___)     (___)     (___)
    (___)      |_|      (___)
    (___)  ___/___\___   | |
     | |  |           |  | |
     | |  |___________| /___\
    /___\  |||     ||| //   \\
   //   \\ |||     ||| \\   //
   \\   // |||     |||  \\ //
    \\ // ()__)   (__()
          ///       \\\
         ///         \\\
       _///___     ___\\\_
      |_______|   |_______|

